%YAML 1.1
%TAG !u! tag:unity3d.com,2011:
--- !u!29 &1
OcclusionCullingSettings:
  m_ObjectHideFlags: 0
  serializedVersion: 2
  m_OcclusionBakeSettings:
    smallestOccluder: 5
    smallestHole: 0.25
    backfaceThreshold: 100
  m_SceneGUID: 00000000000000000000000000000000
  m_OcclusionCullingData: {fileID: 0}
--- !u!104 &2
RenderSettings:
  m_ObjectHideFlags: 0
  serializedVersion: 8
  m_Fog: 0
  m_FogColor: {r: 0.5, g: 0.5, b: 0.5, a: 1}
  m_FogMode: 3
  m_FogDensity: 0.01
  m_LinearFogStart: 0
  m_LinearFogEnd: 300
  m_AmbientSkyColor: {r: 0.212, g: 0.227, b: 0.259, a: 1}
  m_AmbientEquatorColor: {r: 0.114, g: 0.125, b: 0.133, a: 1}
  m_AmbientGroundColor: {r: 0.047, g: 0.043, b: 0.035, a: 1}
  m_AmbientIntensity: 1
  m_AmbientMode: 0
  m_SubtractiveShadowColor: {r: 0.42, g: 0.478, b: 0.627, a: 1}
  m_SkyboxMaterial: {fileID: 10304, guid: 0000000000000000f000000000000000, type: 0}
  m_HaloStrength: 0.5
  m_FlareStrength: 1
  m_FlareFadeSpeed: 3
  m_HaloTexture: {fileID: 0}
  m_SpotCookie: {fileID: 10001, guid: 0000000000000000e000000000000000, type: 0}
  m_DefaultReflectionMode: 0
  m_DefaultReflectionResolution: 128
  m_ReflectionBounces: 1
  m_ReflectionIntensity: 1
  m_CustomReflection: {fileID: 0}
  m_Sun: {fileID: 0}
  m_IndirectSpecularColor: {r: 0.44657874, g: 0.49641258, b: 0.5748172, a: 1}
--- !u!157 &3
LightmapSettings:
  m_ObjectHideFlags: 0
  serializedVersion: 11
  m_GIWorkflowMode: 0
  m_GISettings:
    serializedVersion: 2
    m_BounceScale: 1
    m_IndirectOutputScale: 1
    m_AlbedoBoost: 1
    m_TemporalCoherenceThreshold: 1
    m_EnvironmentLightingMode: 0
    m_EnableBakedLightmaps: 1
    m_EnableRealtimeLightmaps: 1
  m_LightmapEditorSettings:
    serializedVersion: 9
    m_Resolution: 2
    m_BakeResolution: 40
    m_TextureWidth: 1024
    m_TextureHeight: 1024
    m_AO: 0
    m_AOMaxDistance: 1
    m_CompAOExponent: 1
    m_CompAOExponentDirect: 0
    m_Padding: 2
    m_LightmapParameters: {fileID: 0}
    m_LightmapsBakeMode: 1
    m_TextureCompression: 1
    m_FinalGather: 0
    m_FinalGatherFiltering: 1
    m_FinalGatherRayCount: 256
    m_ReflectionCompression: 2
    m_MixedBakeMode: 2
    m_BakeBackend: 0
    m_PVRSampling: 1
    m_PVRDirectSampleCount: 32
    m_PVRSampleCount: 500
    m_PVRBounces: 2
    m_PVRFilterTypeDirect: 0
    m_PVRFilterTypeIndirect: 0
    m_PVRFilterTypeAO: 0
    m_PVRFilteringMode: 1
    m_PVRCulling: 1
    m_PVRFilteringGaussRadiusDirect: 1
    m_PVRFilteringGaussRadiusIndirect: 5
    m_PVRFilteringGaussRadiusAO: 2
    m_PVRFilteringAtrousPositionSigmaDirect: 0.5
    m_PVRFilteringAtrousPositionSigmaIndirect: 2
    m_PVRFilteringAtrousPositionSigmaAO: 1
    m_ShowResolutionOverlay: 1
  m_LightingDataAsset: {fileID: 0}
  m_UseShadowmask: 1
--- !u!196 &4
NavMeshSettings:
  serializedVersion: 2
  m_ObjectHideFlags: 0
  m_BuildSettings:
    serializedVersion: 2
    agentTypeID: 0
    agentRadius: 0.5
    agentHeight: 2
    agentSlope: 45
    agentClimb: 0.4
    ledgeDropHeight: 0
    maxJumpAcrossDistance: 0
    minRegionArea: 2
    manualCellSize: 0
    cellSize: 0.16666667
    manualTileSize: 0
    tileSize: 256
    accuratePlacement: 0
    debug:
      m_Flags: 0
  m_NavMeshData: {fileID: 0}
--- !u!1001 &314522641
Prefab:
  m_ObjectHideFlags: 0
  serializedVersion: 2
  m_Modification:
    m_TransformParent: {fileID: 2100819818}
    m_Modifications:
    - target: {fileID: 4370666499921430, guid: 72c6824eaa143604aa7bca7bee6fd485, type: 2}
      propertyPath: m_LocalPosition.x
      value: 0
      objectReference: {fileID: 0}
    - target: {fileID: 4370666499921430, guid: 72c6824eaa143604aa7bca7bee6fd485, type: 2}
      propertyPath: m_LocalPosition.y
      value: 1.07
      objectReference: {fileID: 0}
    - target: {fileID: 4370666499921430, guid: 72c6824eaa143604aa7bca7bee6fd485, type: 2}
      propertyPath: m_LocalPosition.z
      value: -0
      objectReference: {fileID: 0}
    - target: {fileID: 4370666499921430, guid: 72c6824eaa143604aa7bca7bee6fd485, type: 2}
      propertyPath: m_LocalRotation.x
      value: -0
      objectReference: {fileID: 0}
    - target: {fileID: 4370666499921430, guid: 72c6824eaa143604aa7bca7bee6fd485, type: 2}
      propertyPath: m_LocalRotation.y
      value: -0
      objectReference: {fileID: 0}
    - target: {fileID: 4370666499921430, guid: 72c6824eaa143604aa7bca7bee6fd485, type: 2}
      propertyPath: m_LocalRotation.z
      value: -0
      objectReference: {fileID: 0}
    - target: {fileID: 4370666499921430, guid: 72c6824eaa143604aa7bca7bee6fd485, type: 2}
      propertyPath: m_LocalRotation.w
      value: 1
      objectReference: {fileID: 0}
    - target: {fileID: 4370666499921430, guid: 72c6824eaa143604aa7bca7bee6fd485, type: 2}
      propertyPath: m_RootOrder
      value: 0
      objectReference: {fileID: 0}
    - target: {fileID: 4370666499921430, guid: 72c6824eaa143604aa7bca7bee6fd485, type: 2}
      propertyPath: m_LocalScale.x
      value: 1
      objectReference: {fileID: 0}
    - target: {fileID: 4370666499921430, guid: 72c6824eaa143604aa7bca7bee6fd485, type: 2}
      propertyPath: m_LocalScale.z
      value: 1
      objectReference: {fileID: 0}
    - target: {fileID: 1015481927161066, guid: 72c6824eaa143604aa7bca7bee6fd485, type: 2}
      propertyPath: m_Name
      value: 3D_GizmoPrefab (1)
      objectReference: {fileID: 0}
    m_RemovedComponents: []
  m_ParentPrefab: {fileID: 100100000, guid: 72c6824eaa143604aa7bca7bee6fd485, type: 2}
  m_IsPrefabParent: 0
--- !u!1001 &494659529
Prefab:
  m_ObjectHideFlags: 0
  serializedVersion: 2
  m_Modification:
    m_TransformParent: {fileID: 933190668}
    m_Modifications:
    - target: {fileID: 4370666499921430, guid: 72c6824eaa143604aa7bca7bee6fd485, type: 2}
      propertyPath: m_LocalPosition.x
      value: -0
      objectReference: {fileID: 0}
    - target: {fileID: 4370666499921430, guid: 72c6824eaa143604aa7bca7bee6fd485, type: 2}
      propertyPath: m_LocalPosition.y
      value: 0
      objectReference: {fileID: 0}
    - target: {fileID: 4370666499921430, guid: 72c6824eaa143604aa7bca7bee6fd485, type: 2}
      propertyPath: m_LocalPosition.z
      value: 0
      objectReference: {fileID: 0}
    - target: {fileID: 4370666499921430, guid: 72c6824eaa143604aa7bca7bee6fd485, type: 2}
      propertyPath: m_LocalRotation.x
      value: 0
      objectReference: {fileID: 0}
    - target: {fileID: 4370666499921430, guid: 72c6824eaa143604aa7bca7bee6fd485, type: 2}
      propertyPath: m_LocalRotation.y
      value: 0
      objectReference: {fileID: 0}
    - target: {fileID: 4370666499921430, guid: 72c6824eaa143604aa7bca7bee6fd485, type: 2}
      propertyPath: m_LocalRotation.z
      value: 0
      objectReference: {fileID: 0}
    - target: {fileID: 4370666499921430, guid: 72c6824eaa143604aa7bca7bee6fd485, type: 2}
      propertyPath: m_LocalRotation.w
      value: 1
      objectReference: {fileID: 0}
    - target: {fileID: 4370666499921430, guid: 72c6824eaa143604aa7bca7bee6fd485, type: 2}
      propertyPath: m_RootOrder
      value: 0
      objectReference: {fileID: 0}
    - target: {fileID: 4338676783820030, guid: 72c6824eaa143604aa7bca7bee6fd485, type: 2}
      propertyPath: m_RootOrder
      value: 2
      objectReference: {fileID: 0}
    - target: {fileID: 4416041520427418, guid: 72c6824eaa143604aa7bca7bee6fd485, type: 2}
      propertyPath: m_RootOrder
      value: 1
      objectReference: {fileID: 0}
    - target: {fileID: 4370666499921430, guid: 72c6824eaa143604aa7bca7bee6fd485, type: 2}
      propertyPath: m_LocalScale.x
      value: 4.1153803
      objectReference: {fileID: 0}
    - target: {fileID: 4370666499921430, guid: 72c6824eaa143604aa7bca7bee6fd485, type: 2}
      propertyPath: m_LocalScale.y
      value: 4.115381
      objectReference: {fileID: 0}
    - target: {fileID: 4370666499921430, guid: 72c6824eaa143604aa7bca7bee6fd485, type: 2}
      propertyPath: m_LocalScale.z
      value: 4.115381
      objectReference: {fileID: 0}
    m_RemovedComponents: []
  m_ParentPrefab: {fileID: 100100000, guid: 72c6824eaa143604aa7bca7bee6fd485, type: 2}
  m_IsPrefabParent: 0
--- !u!1 &933190666
GameObject:
  m_ObjectHideFlags: 0
  m_PrefabParentObject: {fileID: 0}
  m_PrefabInternal: {fileID: 0}
  serializedVersion: 5
  m_Component:
  - component: {fileID: 933190668}
  - component: {fileID: 933190667}
  - component: {fileID: 933190669}
  m_Layer: 0
  m_Name: Root
  m_TagString: Untagged
  m_Icon: {fileID: 0}
  m_NavMeshLayer: 0
  m_StaticEditorFlags: 0
  m_IsActive: 1
--- !u!114 &933190667
MonoBehaviour:
  m_ObjectHideFlags: 0
  m_PrefabParentObject: {fileID: 0}
  m_PrefabInternal: {fileID: 0}
  m_GameObject: {fileID: 933190666}
  m_Enabled: 1
  m_EditorHideFlags: 0
  m_Script: {fileID: 11500000, guid: fd5cc8d7b3bec674f8e6c3f40d2888a2, type: 3}
  m_Name: 
  m_EditorClassIdentifier: 
  m_pointOrigine: {fileID: 2100819818}
  m_pointCible: {fileID: 1417405985}
  m_pointReference: {fileID: 1094913924}
--- !u!4 &933190668
Transform:
  m_ObjectHideFlags: 0
  m_PrefabParentObject: {fileID: 0}
  m_PrefabInternal: {fileID: 0}
  m_GameObject: {fileID: 933190666}
  m_LocalRotation: {x: -0.26636568, y: -0.5266426, z: -0.17816162, w: 0.78737247}
  m_LocalPosition: {x: -6.42, y: -0.17, z: 3.83}
  m_LocalScale: {x: 1, y: 1, z: 1}
  m_Children:
  - {fileID: 2100819818}
  m_Father: {fileID: 0}
  m_RootOrder: 2
  m_LocalEulerAnglesHint: {x: -37.381, y: -67.554, z: 0}
--- !u!114 &933190669
MonoBehaviour:
  m_ObjectHideFlags: 0
  m_PrefabParentObject: {fileID: 0}
  m_PrefabInternal: {fileID: 0}
  m_GameObject: {fileID: 933190666}
  m_Enabled: 0
  m_EditorHideFlags: 0
  m_Script: {fileID: 11500000, guid: a37f0452349fefb48b623c7038640a0a, type: 3}
  m_Name: 
  m_EditorClassIdentifier: 
  m_rotation: {x: 90, y: 90, z: 90}
--- !u!1 &950428451
GameObject:
  m_ObjectHideFlags: 0
  m_PrefabParentObject: {fileID: 0}
  m_PrefabInternal: {fileID: 0}
  serializedVersion: 5
  m_Component:
  - component: {fileID: 950428453}
  - component: {fileID: 950428452}
  m_Layer: 0
  m_Name: Directional Light
  m_TagString: Untagged
  m_Icon: {fileID: 0}
  m_NavMeshLayer: 0
  m_StaticEditorFlags: 0
  m_IsActive: 1
--- !u!108 &950428452
Light:
  m_ObjectHideFlags: 0
  m_PrefabParentObject: {fileID: 0}
  m_PrefabInternal: {fileID: 0}
  m_GameObject: {fileID: 950428451}
  m_Enabled: 1
  serializedVersion: 8
  m_Type: 1
  m_Color: {r: 1, g: 0.95686275, b: 0.8392157, a: 1}
  m_Intensity: 1
  m_Range: 10
  m_SpotAngle: 30
  m_CookieSize: 10
  m_Shadows:
    m_Type: 2
    m_Resolution: -1
    m_CustomResolution: -1
    m_Strength: 1
    m_Bias: 0.05
    m_NormalBias: 0.4
    m_NearPlane: 0.2
  m_Cookie: {fileID: 0}
  m_DrawHalo: 0
  m_Flare: {fileID: 0}
  m_RenderMode: 0
  m_CullingMask:
    serializedVersion: 2
    m_Bits: 4294967295
  m_Lightmapping: 4
  m_AreaSize: {x: 1, y: 1}
  m_BounceIntensity: 1
  m_ColorTemperature: 6570
  m_UseColorTemperature: 0
  m_ShadowRadius: 0
  m_ShadowAngle: 0
--- !u!4 &950428453
Transform:
  m_ObjectHideFlags: 0
  m_PrefabParentObject: {fileID: 0}
  m_PrefabInternal: {fileID: 0}
  m_GameObject: {fileID: 950428451}
  m_LocalRotation: {x: 0.40821788, y: -0.23456968, z: 0.10938163, w: 0.8754261}
  m_LocalPosition: {x: 0, y: 3, z: 0}
  m_LocalScale: {x: 1, y: 1, z: 1}
  m_Children: []
  m_Father: {fileID: 0}
  m_RootOrder: 1
  m_LocalEulerAnglesHint: {x: 50, y: -30, z: 0}
--- !u!4 &1094913924 stripped
Transform:
  m_PrefabParentObject: {fileID: 4370666499921430, guid: 72c6824eaa143604aa7bca7bee6fd485,
    type: 2}
  m_PrefabInternal: {fileID: 1861642025}
--- !u!1001 &1384670798
Prefab:
  m_ObjectHideFlags: 0
  serializedVersion: 2
  m_Modification:
    m_TransformParent: {fileID: 0}
    m_Modifications:
    - target: {fileID: 4370666499921430, guid: 72c6824eaa143604aa7bca7bee6fd485, type: 2}
      propertyPath: m_LocalPosition.x
      value: 0
      objectReference: {fileID: 0}
    - target: {fileID: 4370666499921430, guid: 72c6824eaa143604aa7bca7bee6fd485, type: 2}
      propertyPath: m_LocalPosition.y
      value: 0
      objectReference: {fileID: 0}
    - target: {fileID: 4370666499921430, guid: 72c6824eaa143604aa7bca7bee6fd485, type: 2}
      propertyPath: m_LocalPosition.z
      value: 0
      objectReference: {fileID: 0}
    - target: {fileID: 4370666499921430, guid: 72c6824eaa143604aa7bca7bee6fd485, type: 2}
      propertyPath: m_LocalRotation.x
      value: -0
      objectReference: {fileID: 0}
    - target: {fileID: 4370666499921430, guid: 72c6824eaa143604aa7bca7bee6fd485, type: 2}
      propertyPath: m_LocalRotation.y
      value: -0
      objectReference: {fileID: 0}
    - target: {fileID: 4370666499921430, guid: 72c6824eaa143604aa7bca7bee6fd485, type: 2}
      propertyPath: m_LocalRotation.z
      value: -0
      objectReference: {fileID: 0}
    - target: {fileID: 4370666499921430, guid: 72c6824eaa143604aa7bca7bee6fd485, type: 2}
      propertyPath: m_LocalRotation.w
      value: 1
      objectReference: {fileID: 0}
    - target: {fileID: 4370666499921430, guid: 72c6824eaa143604aa7bca7bee6fd485, type: 2}
      propertyPath: m_RootOrder
      value: 3
      objectReference: {fileID: 0}
    - target: {fileID: 1015481927161066, guid: 72c6824eaa143604aa7bca7bee6fd485, type: 2}
      propertyPath: m_Name
      value: 3D_GizmoPrefab (1)
      objectReference: {fileID: 0}
    - target: {fileID: 4370666499921430, guid: 72c6824eaa143604aa7bca7bee6fd485, type: 2}
      propertyPath: m_LocalScale.x
      value: 4.1153803
      objectReference: {fileID: 0}
    - target: {fileID: 4370666499921430, guid: 72c6824eaa143604aa7bca7bee6fd485, type: 2}
      propertyPath: m_LocalScale.y
      value: 4.115381
      objectReference: {fileID: 0}
    - target: {fileID: 4370666499921430, guid: 72c6824eaa143604aa7bca7bee6fd485, type: 2}
      propertyPath: m_LocalScale.z
      value: 4.115381
      objectReference: {fileID: 0}
    m_RemovedComponents: []
  m_ParentPrefab: {fileID: 100100000, guid: 72c6824eaa143604aa7bca7bee6fd485, type: 2}
  m_IsPrefabParent: 0
--- !u!4 &1417405985 stripped
Transform:
  m_PrefabParentObject: {fileID: 4370666499921430, guid: 72c6824eaa143604aa7bca7bee6fd485,
    type: 2}
  m_PrefabInternal: {fileID: 314522641}
--- !u!1001 &1861642025
Prefab:
  m_ObjectHideFlags: 0
  serializedVersion: 2
  m_Modification:
    m_TransformParent: {fileID: 0}
    m_Modifications:
    - target: {fileID: 4370666499921430, guid: 72c6824eaa143604aa7bca7bee6fd485, type: 2}
      propertyPath: m_LocalPosition.x
      value: 0
      objectReference: {fileID: 0}
    - target: {fileID: 4370666499921430, guid: 72c6824eaa143604aa7bca7bee6fd485, type: 2}
      propertyPath: m_LocalPosition.y
      value: 0
      objectReference: {fileID: 0}
    - target: {fileID: 4370666499921430, guid: 72c6824eaa143604aa7bca7bee6fd485, type: 2}
      propertyPath: m_LocalPosition.z
      value: 3.76
      objectReference: {fileID: 0}
    - target: {fileID: 4370666499921430, guid: 72c6824eaa143604aa7bca7bee6fd485, type: 2}
      propertyPath: m_LocalRotation.x
      value: -0
      objectReference: {fileID: 0}
    - target: {fileID: 4370666499921430, guid: 72c6824eaa143604aa7bca7bee6fd485, type: 2}
      propertyPath: m_LocalRotation.y
      value: -0
      objectReference: {fileID: 0}
    - target: {fileID: 4370666499921430, guid: 72c6824eaa143604aa7bca7bee6fd485, type: 2}
      propertyPath: m_LocalRotation.z
      value: -0
      objectReference: {fileID: 0}
    - target: {fileID: 4370666499921430, guid: 72c6824eaa143604aa7bca7bee6fd485, type: 2}
      propertyPath: m_LocalRotation.w
      value: 1
      objectReference: {fileID: 0}
    - target: {fileID: 4370666499921430, guid: 72c6824eaa143604aa7bca7bee6fd485, type: 2}
      propertyPath: m_RootOrder
      value: 4
      objectReference: {fileID: 0}
    - target: {fileID: 1015481927161066, guid: 72c6824eaa143604aa7bca7bee6fd485, type: 2}
      propertyPath: m_Name
      value: 3D_GizmoPrefab (2)
      objectReference: {fileID: 0}
    - target: {fileID: 4370666499921430, guid: 72c6824eaa143604aa7bca7bee6fd485, type: 2}
      propertyPath: m_LocalScale.x
      value: 4.1153803
      objectReference: {fileID: 0}
    - target: {fileID: 4370666499921430, guid: 72c6824eaa143604aa7bca7bee6fd485, type: 2}
      propertyPath: m_LocalScale.y
      value: 4.115381
      objectReference: {fileID: 0}
    - target: {fileID: 4370666499921430, guid: 72c6824eaa143604aa7bca7bee6fd485, type: 2}
      propertyPath: m_LocalScale.z
      value: 4.115381
      objectReference: {fileID: 0}
    m_RemovedComponents: []
  m_ParentPrefab: {fileID: 100100000, guid: 72c6824eaa143604aa7bca7bee6fd485, type: 2}
  m_IsPrefabParent: 0
--- !u!1 &1934487598
GameObject:
  m_ObjectHideFlags: 0
  m_PrefabParentObject: {fileID: 0}
  m_PrefabInternal: {fileID: 0}
  serializedVersion: 5
  m_Component:
  - component: {fileID: 1934487602}
  - component: {fileID: 1934487601}
  - component: {fileID: 1934487600}
  - component: {fileID: 1934487599}
  m_Layer: 0
  m_Name: Main Camera
  m_TagString: MainCamera
  m_Icon: {fileID: 0}
  m_NavMeshLayer: 0
  m_StaticEditorFlags: 0
  m_IsActive: 1
--- !u!81 &1934487599
AudioListener:
  m_ObjectHideFlags: 0
  m_PrefabParentObject: {fileID: 0}
  m_PrefabInternal: {fileID: 0}
  m_GameObject: {fileID: 1934487598}
  m_Enabled: 1
--- !u!124 &1934487600
Behaviour:
  m_ObjectHideFlags: 0
  m_PrefabParentObject: {fileID: 0}
  m_PrefabInternal: {fileID: 0}
  m_GameObject: {fileID: 1934487598}
  m_Enabled: 1
--- !u!20 &1934487601
Camera:
  m_ObjectHideFlags: 0
  m_PrefabParentObject: {fileID: 0}
  m_PrefabInternal: {fileID: 0}
  m_GameObject: {fileID: 1934487598}
  m_Enabled: 1
  serializedVersion: 2
  m_ClearFlags: 1
  m_BackGroundColor: {r: 0.19215687, g: 0.3019608, b: 0.4745098, a: 0}
  m_NormalizedViewPortRect:
    serializedVersion: 2
    x: 0
    y: 0
    width: 1
    height: 1
  near clip plane: 0.3
  far clip plane: 1000
  field of view: 60
  orthographic: 0
  orthographic size: 5
  m_Depth: -1
  m_CullingMask:
    serializedVersion: 2
    m_Bits: 4294967295
  m_RenderingPath: -1
  m_TargetTexture: {fileID: 0}
  m_TargetDisplay: 0
  m_TargetEye: 3
  m_HDR: 1
  m_AllowMSAA: 1
  m_AllowDynamicResolution: 0
  m_ForceIntoRT: 0
  m_OcclusionCulling: 1
  m_StereoConvergence: 10
  m_StereoSeparation: 0.022
--- !u!4 &1934487602
Transform:
  m_ObjectHideFlags: 0
  m_PrefabParentObject: {fileID: 0}
  m_PrefabInternal: {fileID: 0}
  m_GameObject: {fileID: 1934487598}
  m_LocalRotation: {x: 0, y: 0, z: 0, w: 1}
  m_LocalPosition: {x: 0, y: 1, z: -10}
  m_LocalScale: {x: 1, y: 1, z: 1}
  m_Children: []
  m_Father: {fileID: 0}
  m_RootOrder: 0
  m_LocalEulerAnglesHint: {x: 0, y: 0, z: 0}
--- !u!4 &2100819818 stripped
Transform:
  m_PrefabParentObject: {fileID: 4370666499921430, guid: 72c6824eaa143604aa7bca7bee6fd485,
    type: 2}
  m_PrefabInternal: {fileID: 494659529}
